{
    "trademarkList": [{
            "tmId": 2,
            "tmName": "苹果"
        },
        {
            "tmId": 1,
            "tmName": "小米"
        },
        {
            "tmId": 6,
            "tmName": "VIVO"
        },
        {
            "tmId": 3,
            "tmName": "华为"
        },
        {
            "tmId": 4,
            "tmName": "尚硅谷"
        },
        {
            "tmId": 5,
            "tmName": "OPPO"
        },
        {
            "tmId": 7,
            "tmName": "三星"
        },
        {
            "tmId": 24,
            "tmName": "联想"
        },
        {
            "tmId": 26,
            "tmName": "海信"
        },
        {
            "tmId": 27,
            "tmName": "戴尔"
        }
    ],
    "attrsList": [{
            "attrId": 106,
            "attrValueList": [
                "安卓手机",
                "苹果手机"
            ],
            "attrName": "手机一级"
        },
        {
            "attrId": 107,
            "attrValueList": [
                "小米",
                "苹果",
                "华为"
            ],
            "attrName": "二级手机"
        },
        {
            "attrId": 23,
            "attrValueList": [
                "8G",
                "6G",
                "4G",
                "12G",
                "3G"
            ],
            "attrName": "运行内存"
        },
        {
            "attrId": 24,
            "attrValueList": [
                "128G",
                "256G",
                "64G",
                "512G",
                "32G"
            ],
            "attrName": "机身内存"
        },
        {
            "attrId": 37,
            "attrValueList": [
                "Java",
                "C#",
                "JavaScript"
            ],
            "attrName": "分类"
        },
        {
            "attrId": 111,
            "attrValueList": [
                "骁龙439",
                "骁龙845",
                "麒麟990",
                "5G骁龙768G",
                "骁龙730G"
            ],
            "attrName": "CPU型号"
        },
        {
            "attrId": 112,
            "attrValueList": [
                "6.0-6.24英寸",
                "6.85-6.94英寸",
                "6.55-6.64英寸",
                "6.95英寸及以上",
                " 6.75-6.84英寸",
                "6.65-6.74英寸"
            ],
            "attrName": "屏幕尺寸"
        },
        {
            "attrId": 113,
            "attrValueList": [
                "个位大佬不要乱删数据"
            ],
            "attrName": "跪求"
        },
        {
            "attrId": 17430,
            "attrValueList": [
                "zwx"
            ],
            "attrName": "zwx"
        },
        {
            "attrId": 25,
            "attrValueList": [
                "i5"
            ],
            "attrName": "处理器"
        }
    ],
    "goodsList": [{
            "id": 7,
            "defaultImg": "http://47.93.148.192:8080/group1/M00/00/01/rBHu8l-rgJqAHPnoAAF9hoDNfsc505.jpg",
            "title": "Redmi 10X 4G Helio G85游戏芯 4800万超清四摄 5020mAh大电量 小孔全面屏 128GB大存储 8GB+128GB 明月灰 游戏智能手机 小米 红米",
            "price": 1299.0,
            "createTime": null,
            "tmId": null,
            "tmName": null,
            "category1Id": null,
            "category1Name": null,
            "category2Id": null,
            "category2Name": null,
            "category3Id": null,
            "category3Name": null,
            "hotScore": 0,
            "attrs": null
        },
        {
            "id": 6292,
            "defaultImg": "http://47.93.148.192:8080/group1/M00/00/01/rBHu8l-rgJqAHPnoAAF9hoDNfsc505.jpg",
            "title": "123",
            "price": 0.0,
            "createTime": null,
            "tmId": null,
            "tmName": null,
            "category1Id": null,
            "category1Name": null,
            "category2Id": null,
            "category2Name": null,
            "category3Id": null,
            "category3Name": null,
            "hotScore": 0,
            "attrs": null
        },
        {
            "id": 4397,
            "defaultImg": "http://47.93.148.192:8080/group1/M00/00/01/rBHu8l-rgJqAHPnoAAF9hoDNfsc505.jpg",
            "title": "1",
            "price": 0.0,
            "createTime": null,
            "tmId": null,
            "tmName": null,
            "category1Id": null,
            "category1Name": null,
            "category2Id": null,
            "category2Name": null,
            "category3Id": null,
            "category3Name": null,
            "hotScore": 0,
            "attrs": null
        },
        {
            "id": 16,
            "defaultImg": "http://47.93.148.192:8080/group1/M00/00/02/rBHu8l-sklaALrngAAHGDqdpFtU741.jpg",
            "title": "华为 HUAWEI P40 麒麟990 5G SoC芯片 5000万超感知徕卡三摄 30倍数字变焦 8GB+128GB亮黑色全网通5G手机",
            "price": 4488.0,
            "createTime": null,
            "tmId": null,
            "tmName": null,
            "category1Id": null,
            "category1Name": null,
            "category2Id": null,
            "category2Name": null,
            "category3Id": null,
            "category3Name": null,
            "hotScore": 0,
            "attrs": null
        },
        {
            "id": 8,
            "defaultImg": "http://47.93.148.192:8080/group1/M00/00/02/rBHu8l-rgfWAVRWzAABUiOmA0ic932.jpg",
            "title": "Apple iPhone 12 (A2404) 64GB 黑色 支持移动联通电信5G 双卡双待手机",
            "price": 8197.0,
            "createTime": null,
            "tmId": null,
            "tmName": null,
            "category1Id": null,
            "category1Name": null,
            "category2Id": null,
            "category2Name": null,
            "category3Id": null,
            "category3Name": null,
            "hotScore": 0,
            "attrs": null
        },
        {
            "id": 18,
            "defaultImg": "http://47.93.148.192:8080/group1/M00/00/01/rBHu8l-rgJqAHPnoAAF9hoDNfsc505.jpg",
            "title": "vivo S10 Pro 5G手机 12GB+256GB 绮光焕彩 后置一亿像素 自然柔光人像 光致变色工艺 6nm旗舰芯片",
            "price": 2323.0,
            "createTime": null,
            "tmId": null,
            "tmName": null,
            "category1Id": null,
            "category1Name": null,
            "category2Id": null,
            "category2Name": null,
            "category3Id": null,
            "category3Name": null,
            "hotScore": 0,
            "attrs": null
        },
        {
            "id": 4,
            "defaultImg": "http://47.93.148.192:8080/group1/M00/00/01/rBHu8l-rgJqAHPnoAAF9hoDNfsc505.jpg",
            "title": "Redmi 10X 4G Helio G85游戏芯 4800万超清四摄 5020mAh大电量 小孔全面屏 128GB大存储 4GB+128GB 冰雾白 游戏智能手机 小米 红米",
            "price": 999.0,
            "createTime": null,
            "tmId": null,
            "tmName": null,
            "category1Id": null,
            "category1Name": null,
            "category2Id": null,
            "category2Name": null,
            "category3Id": null,
            "category3Name": null,
            "hotScore": 0,
            "attrs": null
        },
        {
            "id": 6181,
            "defaultImg": "http://47.93.148.192:8080/group1/M00/00/01/rBHu8l-rgJqAHPnoAAF9hoDNfsc505.jpg",
            "title": "245",
            "price": 35976.0,
            "createTime": null,
            "tmId": null,
            "tmName": null,
            "category1Id": null,
            "category1Name": null,
            "category2Id": null,
            "category2Name": null,
            "category3Id": null,
            "category3Name": null,
            "hotScore": 0,
            "attrs": null
        },
        {
            "id": 6138,
            "defaultImg": "http://47.93.148.192:8080/group1/M00/00/01/rBHu8l-rgJqAHPnoAAF9hoDNfsc505.jpg",
            "title": "121",
            "price": 232.0,
            "createTime": null,
            "tmId": null,
            "tmName": null,
            "category1Id": null,
            "category1Name": null,
            "category2Id": null,
            "category2Name": null,
            "category3Id": null,
            "category3Name": null,
            "hotScore": 0,
            "attrs": null
        },
        {
            "id": 6186,
            "defaultImg": "http://47.93.148.192:8080/group1/M00/00/01/rBHu8l-rgJqAHPnoAAF9hoDNfsc505.jpg",
            "title": "11",
            "price": 0.0,
            "createTime": null,
            "tmId": null,
            "tmName": null,
            "category1Id": null,
            "category1Name": null,
            "category2Id": null,
            "category2Name": null,
            "category3Id": null,
            "category3Name": null,
            "hotScore": 0,
            "attrs": null
        }
    ],
    "total": 182,
    "pageSize": 10,
    "pageNo": 1,
    "totalPages": 19
}